{
  "log": {
    "_recordingName": "core-qnGetTransactionsByAddress-pagination",
    "creator": {
      "comment": "persister:fs",
      "name": "Polly.JS",
      "version": "6.0.5"
    },
    "entries": [
      {
        "_id": "e22d110dfebfc62836e4cde0812e07dd",
        "_order": 0,
        "cache": {},
        "request": {
          "bodySize": 152,
          "cookies": [],
          "headers": [
            {
              "_fromType": "array",
              "name": "content-type",
              "value": "application/json"
            },
            {
              "_fromType": "array",
              "name": "accept",
              "value": "*/*"
            },
            {
              "_fromType": "array",
              "name": "content-length",
              "value": "152"
            },
            {
              "_fromType": "array",
              "name": "user-agent",
              "value": "node-fetch/1.0 (+https://github.com/bitinn/node-fetch)"
            },
            {
              "_fromType": "array",
              "name": "accept-encoding",
              "value": "gzip,deflate"
            },
            {
              "_fromType": "array",
              "name": "connection",
              "value": "close"
            },
            {
              "name": "host",
              "value": "green-bitter-firefly.quiknode.pro"
            }
          ],
          "headersSize": 326,
          "httpVersion": "HTTP/1.1",
          "method": "POST",
          "postData": {
            "mimeType": "application/json",
            "params": [],
            "text": "{\"jsonrpc\":\"2.0\",\"id\":1,\"method\":\"qn_getTransactionsByAddress\",\"params\":[{\"address\":\"0xD10E24685c7CDD3cd3BaAA86b09C92Be28c834B6\",\"page\":1,\"perPage\":1}]}"
          },
          "queryString": [],
          "url": "https://green-bitter-firefly.quiknode.pro/e868a8dce35b090dd355be9cba7632fb47b96e2f/"
        },
        "response": {
          "bodySize": 450,
          "content": {
            "mimeType": "application/json",
            "size": 450,
            "text": "{\"jsonrpc\":\"2.0\",\"id\":1,\"result\":{\"paginatedItems\":[{\"blockTimestamp\":\"2023-05-01T15:44:59.000Z\",\"transactionHash\":\"0x13a680b3899614265b0602569e592dafe4763f0acc9976d153b89abe8f646d5a\",\"blockNumber\":\"17166949\",\"transactionIndex\":137,\"fromAddress\":\"0xd10e24685c7cdd3cd3baaa86b09c92be28c834b6\",\"toAddress\":\"0x9d90669665607f08005cae4a7098143f554c59ef\",\"contractAddress\":null,\"value\":\"2331000000000000\"}],\"totalPages\":516,\"totalItems\":516,\"pageNumber\":1}}"
          },
          "cookies": [],
          "headers": [
            {
              "name": "access-control-allow-credentials",
              "value": "true"
            },
            {
              "name": "access-control-allow-headers",
              "value": "Content-Type,Authorization,User-Agent"
            },
            {
              "name": "access-control-allow-methods",
              "value": "GET, POST, OPTIONS"
            },
            {
              "name": "access-control-allow-origin",
              "value": ""
            },
            {
              "name": "content-type",
              "value": "application/json"
            },
            {
              "name": "vary",
              "value": "Accept-Encoding"
            },
            {
              "name": "x-host-id",
              "value": "95ef0e23"
            },
            {
              "name": "x-node-id",
              "value": "08777362-575c-4584-aa42-4f09eb19af92"
            },
            {
              "name": "date",
              "value": "Sun, 09 Jul 2023 11:52:50 GMT"
            },
            {
              "name": "content-length",
              "value": "450"
            },
            {
              "name": "connection",
              "value": "close"
            }
          ],
          "headersSize": 394,
          "httpVersion": "HTTP/1.1",
          "redirectURL": "",
          "status": 200,
          "statusText": "OK"
        },
        "startedDateTime": "2023-07-09T11:52:49.579Z",
        "time": 568,
        "timings": {
          "blocked": -1,
          "connect": -1,
          "dns": -1,
          "receive": 0,
          "send": 0,
          "ssl": -1,
          "wait": 568
        }
      },
      {
        "_id": "6a5a49985a461b42c6455d8b0f984e43",
        "_order": 0,
        "cache": {},
        "request": {
          "bodySize": 152,
          "cookies": [],
          "headers": [
            {
              "_fromType": "array",
              "name": "content-type",
              "value": "application/json"
            },
            {
              "_fromType": "array",
              "name": "accept",
              "value": "*/*"
            },
            {
              "_fromType": "array",
              "name": "content-length",
              "value": "152"
            },
            {
              "_fromType": "array",
              "name": "user-agent",
              "value": "node-fetch/1.0 (+https://github.com/bitinn/node-fetch)"
            },
            {
              "_fromType": "array",
              "name": "accept-encoding",
              "value": "gzip,deflate"
            },
            {
              "_fromType": "array",
              "name": "connection",
              "value": "close"
            },
            {
              "name": "host",
              "value": "green-bitter-firefly.quiknode.pro"
            }
          ],
          "headersSize": 326,
          "httpVersion": "HTTP/1.1",
          "method": "POST",
          "postData": {
            "mimeType": "application/json",
            "params": [],
            "text": "{\"jsonrpc\":\"2.0\",\"id\":2,\"method\":\"qn_getTransactionsByAddress\",\"params\":[{\"address\":\"0xD10E24685c7CDD3cd3BaAA86b09C92Be28c834B6\",\"page\":2,\"perPage\":1}]}"
          },
          "queryString": [],
          "url": "https://green-bitter-firefly.quiknode.pro/e868a8dce35b090dd355be9cba7632fb47b96e2f/"
        },
        "response": {
          "bodySize": 434,
          "content": {
            "mimeType": "application/json",
            "size": 434,
            "text": "{\"jsonrpc\":\"2.0\",\"id\":2,\"result\":{\"paginatedItems\":[{\"blockTimestamp\":\"2023-03-11T04:41:59.000Z\",\"transactionHash\":\"0xa5f3d56cf9cb43ea80e66eab9e49b5e6513f16b4d33ba67a74998ceb7644b4ed\",\"blockNumber\":\"16802538\",\"transactionIndex\":88,\"fromAddress\":\"0xd10e24685c7cdd3cd3baaa86b09c92be28c834b6\",\"toAddress\":\"0x881d40237659c251811cec9c364ef91dc08d300c\",\"contractAddress\":null,\"value\":\"0\"}],\"totalPages\":516,\"totalItems\":516,\"pageNumber\":2}}"
          },
          "cookies": [],
          "headers": [
            {
              "name": "access-control-allow-credentials",
              "value": "true"
            },
            {
              "name": "access-control-allow-headers",
              "value": "Content-Type,Authorization,User-Agent"
            },
            {
              "name": "access-control-allow-methods",
              "value": "GET, POST, OPTIONS"
            },
            {
              "name": "access-control-allow-origin",
              "value": ""
            },
            {
              "name": "content-type",
              "value": "application/json"
            },
            {
              "name": "vary",
              "value": "Accept-Encoding"
            },
            {
              "name": "x-host-id",
              "value": "95ef0e23"
            },
            {
              "name": "x-node-id",
              "value": "08777362-575c-4584-aa42-4f09eb19af92"
            },
            {
              "name": "date",
              "value": "Sun, 09 Jul 2023 11:52:50 GMT"
            },
            {
              "name": "content-length",
              "value": "434"
            },
            {
              "name": "connection",
              "value": "close"
            }
          ],
          "headersSize": 394,
          "httpVersion": "HTTP/1.1",
          "redirectURL": "",
          "status": 200,
          "statusText": "OK"
        },
        "startedDateTime": "2023-07-09T11:52:50.160Z",
        "time": 513,
        "timings": {
          "blocked": -1,
          "connect": -1,
          "dns": -1,
          "receive": 0,
          "send": 0,
          "ssl": -1,
          "wait": 513
        }
      }
    ],
    "pages": [],
    "version": "1.2"
  }
}
