{
  "log": {
    "_recordingName": "core-qnFetchNFTsByCollection-base",
    "creator": {
      "comment": "persister:fs",
      "name": "Polly.JS",
      "version": "6.0.5"
    },
    "entries": [
      {
        "_id": "69eaa1f9c49e290ffce501d51caa8bf4",
        "_order": 0,
        "cache": {},
        "request": {
          "bodySize": 143,
          "cookies": [],
          "headers": [
            {
              "_fromType": "array",
              "name": "content-type",
              "value": "application/json"
            },
            {
              "_fromType": "array",
              "name": "accept",
              "value": "*/*"
            },
            {
              "_fromType": "array",
              "name": "content-length",
              "value": "143"
            },
            {
              "_fromType": "array",
              "name": "user-agent",
              "value": "node-fetch/1.0 (+https://github.com/bitinn/node-fetch)"
            },
            {
              "_fromType": "array",
              "name": "accept-encoding",
              "value": "gzip,deflate"
            },
            {
              "_fromType": "array",
              "name": "connection",
              "value": "close"
            },
            {
              "name": "host",
              "value": "green-bitter-firefly.quiknode.pro"
            }
          ],
          "headersSize": 326,
          "httpVersion": "HTTP/1.1",
          "method": "POST",
          "postData": {
            "mimeType": "application/json",
            "params": [],
            "text": "{\"jsonrpc\":\"2.0\",\"id\":0,\"method\":\"qn_fetchNFTsByCollection\",\"params\":[{\"collection\":\"0x2106C00Ac7dA0A3430aE667879139E832307AeAa\",\"perPage\":1}]}"
          },
          "queryString": [],
          "url": "https://green-bitter-firefly.quiknode.pro"
        },
        "response": {
          "bodySize": 730,
          "content": {
            "mimeType": "application/json",
            "size": 730,
            "text": "{\"jsonrpc\":\"2.0\",\"id\":0,\"result\":{\"collection\":\"0x2106C00Ac7dA0A3430aE667879139E832307AeAa\",\"tokens\":[{\"collectionName\":\"Loopy Donuts\",\"collectionAddress\":\"0x2106c00ac7da0a3430ae667879139e832307aeaa\",\"collectionTokenId\":\"0\",\"description\":\"\",\"name\":\"Loopy Donut #0\",\"imageUrl\":\"https://quicknode.mypinata.cloud/ipfs/QmSNmVFTJv6cG9M8ZRU8T9F4Kz9HHxmV85ssGP5W8ZsTPa/0.png\",\"traits\":[{\"value\":\"Pink\",\"trait_type\":\"Background\"},{\"value\":\"Donut Body\",\"trait_type\":\"Base\"},{\"value\":\"Caramel\",\"trait_type\":\"Glaze\"},{\"value\":\"Liberty\",\"trait_type\":\"Headgear\"},{\"value\":\"Pretty Please\",\"trait_type\":\"Eyes\"},{\"value\":\"Arrow\",\"trait_type\":\"Accessory\"}],\"chain\":\"ETH\",\"network\":\"MAINNET\"}],\"totalPages\":10000,\"pageNumber\":1,\"totalItems\":10000}}"
          },
          "cookies": [],
          "headers": [
            {
              "name": "access-control-allow-credentials",
              "value": "true"
            },
            {
              "name": "access-control-allow-headers",
              "value": "Content-Type,Authorization,User-Agent"
            },
            {
              "name": "access-control-allow-methods",
              "value": "GET, POST, OPTIONS"
            },
            {
              "name": "access-control-allow-origin",
              "value": ""
            },
            {
              "name": "content-type",
              "value": "application/json"
            },
            {
              "name": "vary",
              "value": "Accept-Encoding"
            },
            {
              "name": "x-host-id",
              "value": "95ef0e23"
            },
            {
              "name": "x-node-id",
              "value": "08777362-575c-4584-aa42-4f09eb19af92"
            },
            {
              "name": "date",
              "value": "Mon, 10 Jul 2023 17:31:46 GMT"
            },
            {
              "name": "content-length",
              "value": "730"
            },
            {
              "name": "connection",
              "value": "close"
            }
          ],
          "headersSize": 394,
          "httpVersion": "HTTP/1.1",
          "redirectURL": "",
          "status": 200,
          "statusText": "OK"
        },
        "startedDateTime": "2023-07-10T17:31:46.739Z",
        "time": 178,
        "timings": {
          "blocked": -1,
          "connect": -1,
          "dns": -1,
          "receive": 0,
          "send": 0,
          "ssl": -1,
          "wait": 178
        }
      }
    ],
    "pages": [],
    "version": "1.2"
  }
}
