{
  "log": {
    "_recordingName": "core-qnGetWalletTokenTransactions-pagination",
    "creator": {
      "comment": "persister:fs",
      "name": "Polly.JS",
      "version": "6.0.5"
    },
    "entries": [
      {
        "_id": "7edaa5c738ac8bae628c69eb18a730b2",
        "_order": 0,
        "cache": {},
        "request": {
          "bodySize": 210,
          "cookies": [],
          "headers": [
            {
              "_fromType": "array",
              "name": "content-type",
              "value": "application/json"
            },
            {
              "_fromType": "array",
              "name": "accept",
              "value": "*/*"
            },
            {
              "_fromType": "array",
              "name": "content-length",
              "value": "210"
            },
            {
              "_fromType": "array",
              "name": "user-agent",
              "value": "node-fetch/1.0 (+https://github.com/bitinn/node-fetch)"
            },
            {
              "_fromType": "array",
              "name": "accept-encoding",
              "value": "gzip,deflate"
            },
            {
              "_fromType": "array",
              "name": "connection",
              "value": "close"
            },
            {
              "name": "host",
              "value": "green-bitter-firefly.quiknode.pro"
            }
          ],
          "headersSize": 326,
          "httpVersion": "HTTP/1.1",
          "method": "POST",
          "postData": {
            "mimeType": "application/json",
            "params": [],
            "text": "{\"jsonrpc\":\"2.0\",\"id\":1,\"method\":\"qn_getWalletTokenTransactions\",\"params\":[{\"address\":\"0xD10E24685c7CDD3cd3BaAA86b09C92Be28c834B6\",\"contract\":\"0xC02aaA39b223FE8D0A0e5C4F27eAD9083C756Cc2\",\"perPage\":1,\"page\":1}]}"
          },
          "queryString": [],
          "url": "https://green-bitter-firefly.quiknode.pro"
        },
        "response": {
          "bodySize": 678,
          "content": {
            "mimeType": "application/json",
            "size": 678,
            "text": "{\"jsonrpc\":\"2.0\",\"id\":1,\"result\":{\"paginatedItems\":[{\"name\":\"Wrapped Ether\",\"symbol\":\"WETH\",\"decimals\":\"18\",\"address\":\"0xc02aaa39b223fe8d0a0e5c4f27ead9083c756cc2\",\"quantityIn\":\"0\",\"quantityOut\":\"39750000000000000\",\"blockNumber\":\"16443123\",\"transactionHash\":\"0xea0103e8e6deeed812e81ff81b384faa04bb173c759b08bfa8fae89c9026d059\",\"timestamp\":\"2023-01-19T20:05:35.000Z\",\"totalBalance\":\"-39750000000000000\"}],\"token\":{\"address\":\"0xc02aaa39b223fe8d0a0e5c4f27ead9083c756cc2\",\"genesisBlock\":null,\"genesisTransaction\":null,\"name\":\"Wrapped Ether\",\"symbol\":\"WETH\",\"decimals\":\"18\",\"contractAddress\":\"0xc02aaa39b223fe8d0a0e5c4f27ead9083c756cc2\"},\"totalPages\":3,\"totalItems\":3,\"pageNumber\":1}}"
          },
          "cookies": [],
          "headers": [
            {
              "name": "access-control-allow-credentials",
              "value": "true"
            },
            {
              "name": "access-control-allow-headers",
              "value": "Content-Type,Authorization,User-Agent"
            },
            {
              "name": "access-control-allow-methods",
              "value": "GET, POST, OPTIONS"
            },
            {
              "name": "access-control-allow-origin",
              "value": ""
            },
            {
              "name": "content-type",
              "value": "application/json"
            },
            {
              "name": "vary",
              "value": "Accept-Encoding"
            },
            {
              "name": "x-host-id",
              "value": "95ef0e23"
            },
            {
              "name": "x-node-id",
              "value": "08777362-575c-4584-aa42-4f09eb19af92"
            },
            {
              "name": "date",
              "value": "Mon, 10 Jul 2023 17:32:10 GMT"
            },
            {
              "name": "content-length",
              "value": "678"
            },
            {
              "name": "connection",
              "value": "close"
            }
          ],
          "headersSize": 394,
          "httpVersion": "HTTP/1.1",
          "redirectURL": "",
          "status": 200,
          "statusText": "OK"
        },
        "startedDateTime": "2023-07-10T17:32:10.664Z",
        "time": 192,
        "timings": {
          "blocked": -1,
          "connect": -1,
          "dns": -1,
          "receive": 0,
          "send": 0,
          "ssl": -1,
          "wait": 192
        }
      },
      {
        "_id": "39dd9d4dc8ad92c5108d8d1c3ec8669b",
        "_order": 0,
        "cache": {},
        "request": {
          "bodySize": 210,
          "cookies": [],
          "headers": [
            {
              "_fromType": "array",
              "name": "content-type",
              "value": "application/json"
            },
            {
              "_fromType": "array",
              "name": "accept",
              "value": "*/*"
            },
            {
              "_fromType": "array",
              "name": "content-length",
              "value": "210"
            },
            {
              "_fromType": "array",
              "name": "user-agent",
              "value": "node-fetch/1.0 (+https://github.com/bitinn/node-fetch)"
            },
            {
              "_fromType": "array",
              "name": "accept-encoding",
              "value": "gzip,deflate"
            },
            {
              "_fromType": "array",
              "name": "connection",
              "value": "close"
            },
            {
              "name": "host",
              "value": "green-bitter-firefly.quiknode.pro"
            }
          ],
          "headersSize": 326,
          "httpVersion": "HTTP/1.1",
          "method": "POST",
          "postData": {
            "mimeType": "application/json",
            "params": [],
            "text": "{\"jsonrpc\":\"2.0\",\"id\":2,\"method\":\"qn_getWalletTokenTransactions\",\"params\":[{\"address\":\"0xD10E24685c7CDD3cd3BaAA86b09C92Be28c834B6\",\"contract\":\"0xC02aaA39b223FE8D0A0e5C4F27eAD9083C756Cc2\",\"perPage\":1,\"page\":2}]}"
          },
          "queryString": [],
          "url": "https://green-bitter-firefly.quiknode.pro"
        },
        "response": {
          "bodySize": 678,
          "content": {
            "mimeType": "application/json",
            "size": 678,
            "text": "{\"jsonrpc\":\"2.0\",\"id\":2,\"result\":{\"paginatedItems\":[{\"name\":\"Wrapped Ether\",\"symbol\":\"WETH\",\"decimals\":\"18\",\"address\":\"0xc02aaa39b223fe8d0a0e5c4f27ead9083c756cc2\",\"quantityIn\":\"0\",\"quantityOut\":\"79500000000000000\",\"blockNumber\":\"16443123\",\"transactionHash\":\"0xea0103e8e6deeed812e81ff81b384faa04bb173c759b08bfa8fae89c9026d059\",\"timestamp\":\"2023-01-19T20:05:35.000Z\",\"totalBalance\":\"-79500000000000000\"}],\"token\":{\"address\":\"0xc02aaa39b223fe8d0a0e5c4f27ead9083c756cc2\",\"genesisBlock\":null,\"genesisTransaction\":null,\"name\":\"Wrapped Ether\",\"symbol\":\"WETH\",\"decimals\":\"18\",\"contractAddress\":\"0xc02aaa39b223fe8d0a0e5c4f27ead9083c756cc2\"},\"totalPages\":3,\"totalItems\":3,\"pageNumber\":2}}"
          },
          "cookies": [],
          "headers": [
            {
              "name": "access-control-allow-credentials",
              "value": "true"
            },
            {
              "name": "access-control-allow-headers",
              "value": "Content-Type,Authorization,User-Agent"
            },
            {
              "name": "access-control-allow-methods",
              "value": "GET, POST, OPTIONS"
            },
            {
              "name": "access-control-allow-origin",
              "value": ""
            },
            {
              "name": "content-type",
              "value": "application/json"
            },
            {
              "name": "vary",
              "value": "Accept-Encoding"
            },
            {
              "name": "x-host-id",
              "value": "95ef0e23"
            },
            {
              "name": "x-node-id",
              "value": "08777362-575c-4584-aa42-4f09eb19af92"
            },
            {
              "name": "date",
              "value": "Mon, 10 Jul 2023 17:32:11 GMT"
            },
            {
              "name": "content-length",
              "value": "678"
            },
            {
              "name": "connection",
              "value": "close"
            }
          ],
          "headersSize": 394,
          "httpVersion": "HTTP/1.1",
          "redirectURL": "",
          "status": 200,
          "statusText": "OK"
        },
        "startedDateTime": "2023-07-10T17:32:10.861Z",
        "time": 173,
        "timings": {
          "blocked": -1,
          "connect": -1,
          "dns": -1,
          "receive": 0,
          "send": 0,
          "ssl": -1,
          "wait": 173
        }
      }
    ],
    "pages": [],
    "version": "1.2"
  }
}
